<svg width="16" height="16" viewBox="0 0 16 16" fill="none" xmlns="http://www.w3.org/2000/svg">
<path d="M8 16C3.58698 16 0 12.413 0 8C0 3.58698 3.58698 0 8 0C12.413 0 16 3.58698 16 8C16 12.413 12.413 16 8 16Z" fill="#2E3A59"/>
<path d="M6.94358 10.664C6.79474 10.664 6.65334 10.6045 6.54916 10.5003L4.44311 8.39426C4.2273 8.17845 4.2273 7.82124 4.44311 7.60543C4.65892 7.38961 5.01613 7.38961 5.23195 7.60543L6.94358 9.31705L10.7687 5.49194C10.9845 5.27612 11.3417 5.27612 11.5575 5.49194C11.7733 5.70775 11.7733 6.06496 11.5575 6.28078L7.33799 10.5003C7.23381 10.6045 7.09241 10.664 6.94358 10.664Z" fill="white"/>
</svg>
